2017-08-14T15:39:56.2643530-04:00 0HL739GUVG7VQ [INF] Request starting HTTP/1.1 GET http://localhost:5010/api/users   (e5be5b71)
2017-08-14T15:39:57.5302132-04:00 0HL739GUVG7VQ [INF] Creating users controller.  Users count is now  (86f0a1aa)
2017-08-14T15:39:57.5862080-04:00 0HL739GUVG7VQ [INF] Executing action method "Users.Controllers.UsersController.GetAll (users)" with arguments (null) - ModelState is Valid (ba7f4ac2)
2017-08-14T15:39:57.6352032-04:00 0HL739GUVG7VQ [INF] Executing ObjectResult, writing value "Microsoft.AspNetCore.Mvc.ControllerContext". (4e968210)
2017-08-14T15:39:57.6641969-04:00 0HL739GUVG7VQ [INF] Executed action "Users.Controllers.UsersController.GetAll (users)" in 981.1728ms (afa2e885)
2017-08-14T15:39:57.7661886-04:00 0HL739GUVG7VQ [INF] Request finished in 1537.4815ms 204  (15c52c40)
2017-08-14T15:41:16.7116114-04:00 0HL739HMUNN2Q [INF] Request starting HTTP/1.1 GET http://localhost:5010/api/users   (e5be5b71)
2017-08-14T15:41:18.0396004-04:00 0HL739HMUNN2Q [INF] Creating users controller.  Users count is now System.Collections.Generic.List`1[Shared.Data.Persisted.User] (c297c87b)
2017-08-14T15:41:18.0976031-04:00 0HL739HMUNN2Q [INF] Executing action method "Users.Controllers.UsersController.GetAll (users)" with arguments (null) - ModelState is Valid (ba7f4ac2)
2017-08-14T15:41:18.1475996-04:00 0HL739HMUNN2Q [INF] Executing ObjectResult, writing value "Microsoft.AspNetCore.Mvc.ControllerContext". (4e968210)
2017-08-14T15:41:18.4705989-04:00 0HL739HMUNN2Q [INF] Executed action "Users.Controllers.UsersController.GetAll (users)" in 1319.75ms (afa2e885)
2017-08-14T15:41:18.4935976-04:00 0HL739HMUNN2Q [INF] Request finished in 1821.4019ms 200 application/json; charset=utf-8 (15c52c40)
2017-08-14T15:42:37.2067917-04:00 0HL739IEUBBVT [INF] Request starting HTTP/1.1 GET http://localhost:5010/api/users   (e5be5b71)
2017-08-14T15:42:38.3948289-04:00 0HL739IEUBBVT [INF] Creating users controller.  Users count is now 0 (97522cd6)
2017-08-14T15:42:38.4508320-04:00 0HL739IEUBBVT [INF] Executing action method "Users.Controllers.UsersController.GetAll (users)" with arguments (null) - ModelState is Valid (ba7f4ac2)
2017-08-14T15:42:38.5038328-04:00 0HL739IEUBBVT [INF] Executing ObjectResult, writing value "Microsoft.AspNetCore.Mvc.ControllerContext". (4e968210)
2017-08-14T15:42:38.8368424-04:00 0HL739IEUBBVT [INF] Executed action "Users.Controllers.UsersController.GetAll (users)" in 1231.3687ms (afa2e885)
2017-08-14T15:42:38.8720901-04:00 0HL739IEUBBVT [INF] Request finished in 1697.2938ms 200 application/json; charset=utf-8 (15c52c40)
2017-08-14T17:29:27.7059244-04:00 0HL73BE5DKOBS [INF] Request starting HTTP/1.1 GET http://localhost:5010/api/users   (e5be5b71)
2017-08-14T17:29:28.1640000-04:00 0HL73BE5DKOBS [INF] In the Db. (a75a4288)
2017-08-14T17:29:28.8461068-04:00 0HL73BE5DKOBS [INF] In the Using. (74323f10)
2017-08-14T17:29:28.8851109-04:00 0HL73BE5DKOBS [INF] IUsers count is 0. (6590243c)
2017-08-14T17:29:28.8891143-04:00 0HL73BE5DKOBS [INF] In the Db - GetAllUsers. (031b99ab)
2017-08-14T17:29:28.8991161-04:00 0HL73BE5DKOBS [INF] Creating users controller.  Users count is now 0 (97522cd6)
2017-08-14T17:29:28.9601227-04:00 0HL73BE5DKOBS [INF] Executing action method "Users.Controllers.UsersController.GetAll (users)" with arguments (null) - ModelState is Valid (ba7f4ac2)
2017-08-14T17:29:28.9611242-04:00 0HL73BE5DKOBS [INF] In the Db - GetAllUsers. (031b99ab)
2017-08-14T17:29:29.0111319-04:00 0HL73BE5DKOBS [INF] Executing ObjectResult, writing value "Microsoft.AspNetCore.Mvc.ControllerContext". (4e968210)
2017-08-14T17:29:29.3561831-04:00 0HL73BE5DKOBS [INF] Executed action "Users.Controllers.UsersController.GetAll (users)" in 1239.0928ms (afa2e885)
2017-08-14T17:29:29.3771864-04:00 0HL73BE5DKOBS [INF] Request finished in 1708.3571ms 200 application/json; charset=utf-8 (15c52c40)
2017-08-14T17:29:29.3891869-04:00 0HL73BE5DKOBT [INF] Request starting HTTP/1.1 GET http://localhost:5010/favicon.ico   (e5be5b71)
2017-08-14T17:29:29.4011904-04:00 0HL73BE5DKOBT [INF] Request finished in 11.989ms 404  (15c52c40)
2017-08-14T17:30:10.7543607-04:00 0HL73BE5DKOBU [INF] Request starting HTTP/1.1 GET http://localhost:5010/api/users   (e5be5b71)
2017-08-14T17:30:10.7563607-04:00 0HL73BE5DKOBU [INF] In the Db. (a75a4288)
2017-08-14T17:30:10.7563607-04:00 0HL73BE5DKOBU [INF] In the Using. (74323f10)
2017-08-14T17:30:10.7575335-04:00 0HL73BE5DKOBU [INF] IUsers count is 0. (6590243c)
2017-08-14T17:30:10.7575335-04:00 0HL73BE5DKOBU [INF] In the Db - GetAllUsers. (031b99ab)
2017-08-14T17:30:10.7575335-04:00 0HL73BE5DKOBU [INF] Creating users controller.  Users count is now 0 (97522cd6)
2017-08-14T17:30:10.7575335-04:00 0HL73BE5DKOBU [INF] Executing action method "Users.Controllers.UsersController.GetAll (users)" with arguments (null) - ModelState is Valid (ba7f4ac2)
2017-08-14T17:30:10.7575335-04:00 0HL73BE5DKOBU [INF] In the Db - GetAllUsers. (031b99ab)
2017-08-14T17:30:10.7583610-04:00 0HL73BE5DKOBU [INF] Executing ObjectResult, writing value "Microsoft.AspNetCore.Mvc.ControllerContext". (4e968210)
2017-08-14T17:30:10.7593622-04:00 0HL73BE5DKOBU [INF] Executed action "Users.Controllers.UsersController.GetAll (users)" in 3.0936ms (afa2e885)
2017-08-14T17:30:10.7593622-04:00 0HL73BE5DKOBU [INF] Request finished in 4.4637ms 200 application/json; charset=utf-8 (15c52c40)
2017-08-14T17:32:05.3810290-04:00 0HL73BFKDBCAU [INF] Request starting HTTP/1.1 GET http://localhost:5010/api/users   (e5be5b71)
2017-08-14T17:32:05.8412010-04:00 0HL73BFKDBCAU [INF] In the Db. (a75a4288)
2017-08-14T17:32:06.6804970-04:00 0HL73BFKDBCAU [INF] In the Using. (74323f10)
2017-08-14T17:32:06.7225137-04:00 0HL73BFKDBCAU [INF] IUsers count is 0.0 (c16d7231)
2017-08-14T17:32:06.7265146-04:00 0HL73BFKDBCAU [INF] In the Db - GetAllUsers. (031b99ab)
2017-08-14T17:32:06.7365186-04:00 0HL73BFKDBCAU [INF] Creating users controller.  Users count is now 0 (97522cd6)
2017-08-14T17:32:06.7875336-04:00 0HL73BFKDBCAU [INF] Executing action method "Users.Controllers.UsersController.GetAll (users)" with arguments (null) - ModelState is Valid (ba7f4ac2)
2017-08-14T17:32:06.7885341-04:00 0HL73BFKDBCAU [INF] In the Db - GetAllUsers. (031b99ab)
2017-08-14T17:32:06.8365505-04:00 0HL73BFKDBCAU [INF] Executing ObjectResult, writing value "Microsoft.AspNetCore.Mvc.ControllerContext". (4e968210)
2017-08-14T17:32:07.1516574-04:00 0HL73BFKDBCAU [INF] Executed action "Users.Controllers.UsersController.GetAll (users)" in 1352.1765ms (afa2e885)
2017-08-14T17:32:07.1756677-04:00 0HL73BFKDBCAU [INF] Request finished in 1832.3988ms 200 application/json; charset=utf-8 (15c52c40)
2017-08-14T17:34:18.3567766-04:00 0HL73BGS1GBJD [INF] Request starting HTTP/1.1 GET http://localhost:5010/api/users   (e5be5b71)
2017-08-14T17:34:18.8438296-04:00 0HL73BGS1GBJD [INF] In the Db. (a75a4288)
2017-08-14T17:34:19.5039014-04:00 0HL73BGS1GBJD [INF] In the Using. (74323f10)
2017-08-14T17:34:19.5429028-04:00 0HL73BGS1GBJD [INF] IUsers count is 0.False (525c8397)
2017-08-14T17:34:19.5469035-04:00 0HL73BGS1GBJD [INF] In the Db - GetAllUsers. (031b99ab)
2017-08-14T17:34:19.5579064-04:00 0HL73BGS1GBJD [INF] Creating users controller.  Users count is now 0 (97522cd6)
2017-08-14T17:34:19.6109112-04:00 0HL73BGS1GBJD [INF] Executing action method "Users.Controllers.UsersController.GetAll (users)" with arguments (null) - ModelState is Valid (ba7f4ac2)
2017-08-14T17:34:19.6119109-04:00 0HL73BGS1GBJD [INF] In the Db - GetAllUsers. (031b99ab)
2017-08-14T17:34:19.6609159-04:00 0HL73BGS1GBJD [INF] Executing ObjectResult, writing value "Microsoft.AspNetCore.Mvc.ControllerContext". (4e968210)
2017-08-14T17:34:19.9699486-04:00 0HL73BGS1GBJD [INF] Executed action "Users.Controllers.UsersController.GetAll (users)" in 1170.5606ms (afa2e885)
2017-08-14T17:34:19.9909493-04:00 0HL73BGS1GBJD [INF] Request finished in 1672.6741ms 200 application/json; charset=utf-8 (15c52c40)
2017-08-14T17:38:28.3242167-04:00 0HL73BJ6HCBS1 [INF] Request starting HTTP/1.1 GET http://localhost:5010/api/users   (e5be5b71)
2017-08-14T17:38:28.7752460-04:00 0HL73BJ6HCBS1 [INF] In the Db. (a75a4288)
2017-08-14T17:38:29.4872756-04:00 0HL73BJ6HCBS1 [INF] In the Using. (74323f10)
2017-08-14T17:38:29.5402783-04:00 0HL73BJ6HCBS1 [INF] Executed action "Users.Controllers.UsersController.GetAll (users)" in 805.1382ms (afa2e885)
2017-08-14T17:38:29.6202753-04:00 0HL73BJ6HCBS1 [ERR] Connection id ""0HL73BJ6FLNMQ"": An unhandled exception was thrown by the application. (8c14976b)
System.InvalidOperationException: Sequence contains no elements
   at System.Linq.Enumerable.First[TSource](IEnumerable`1 source)
   at Users.Config.Database.UsersDb..ctor(IOptions`1 config) in E:\Delta4DotNetCore\src\server\microservices\users\config\users-db.cs:line 28
--- End of stack trace from previous location where exception was thrown ---
   at System.Runtime.ExceptionServices.ExceptionDispatchInfo.Throw()
   at Microsoft.Extensions.DependencyInjection.ServiceLookup.CallSiteRuntimeResolver.VisitConstructor(ConstructorCallSite constructorCallSite, ServiceProvider provider)
   at Microsoft.Extensions.DependencyInjection.ServiceLookup.CallSiteRuntimeResolver.VisitScoped(ScopedCallSite scopedCallSite, ServiceProvider provider)
   at Microsoft.Extensions.DependencyInjection.ServiceProvider.<>c__DisplayClass16_0.<RealizeService>b__0(ServiceProvider provider)
   at Microsoft.Extensions.Internal.ActivatorUtilities.GetService(IServiceProvider sp, Type type, Type requiredBy, Boolean isDefaultParameterRequired)
   at lambda_method(Closure , IServiceProvider , Object[] )
   at Microsoft.AspNetCore.Mvc.Internal.TypeActivatorCache.CreateInstance[TInstance](IServiceProvider serviceProvider, Type implementationType)
   at Microsoft.AspNetCore.Mvc.Controllers.DefaultControllerFactory.CreateController(ControllerContext context)
   at Microsoft.AspNetCore.Mvc.Internal.ControllerActionInvoker.Next(State& next, Scope& scope, Object& state, Boolean& isCompleted)
   at Microsoft.AspNetCore.Mvc.Internal.ControllerActionInvoker.<InvokeNextResourceFilter>d__22.MoveNext()
--- End of stack trace from previous location where exception was thrown ---
   at System.Runtime.ExceptionServices.ExceptionDispatchInfo.Throw()
   at Microsoft.AspNetCore.Mvc.Internal.ControllerActionInvoker.Rethrow(ResourceExecutedContext context)
   at Microsoft.AspNetCore.Mvc.Internal.ControllerActionInvoker.Next(State& next, Scope& scope, Object& state, Boolean& isCompleted)
   at Microsoft.AspNetCore.Mvc.Internal.ControllerActionInvoker.<InvokeAsync>d__20.MoveNext()
--- End of stack trace from previous location where exception was thrown ---
   at System.Runtime.ExceptionServices.ExceptionDispatchInfo.Throw()
   at System.Runtime.CompilerServices.TaskAwaiter.HandleNonSuccessAndDebuggerNotification(Task task)
   at Microsoft.AspNetCore.Builder.RouterMiddleware.<Invoke>d__4.MoveNext()
--- End of stack trace from previous location where exception was thrown ---
   at System.Runtime.ExceptionServices.ExceptionDispatchInfo.Throw()
   at System.Runtime.CompilerServices.TaskAwaiter.HandleNonSuccessAndDebuggerNotification(Task task)
   at Microsoft.AspNetCore.Hosting.Internal.RequestServicesContainerMiddleware.<Invoke>d__3.MoveNext()
--- End of stack trace from previous location where exception was thrown ---
   at System.Runtime.ExceptionServices.ExceptionDispatchInfo.Throw()
   at System.Runtime.CompilerServices.TaskAwaiter.HandleNonSuccessAndDebuggerNotification(Task task)
   at Microsoft.AspNetCore.Server.Kestrel.Internal.Http.Frame`1.<RequestProcessingAsync>d__2.MoveNext()
2017-08-14T17:38:29.7202766-04:00 0HL73BJ6HCBS1 [INF] Request finished in 1423.555ms 500  (15c52c40)
2017-08-14T17:45:48.5661013-04:00 0HL73BN9NR78D [INF] Request starting HTTP/1.1 GET http://localhost:5010/api/users   (e5be5b71)
2017-08-14T17:45:49.1451510-04:00 0HL73BN9NR78D [INF] In the Db. (a75a4288)
2017-08-14T17:48:26.6951027-04:00 0HL73BOORSLI7 [INF] Request starting HTTP/1.1 GET http://localhost:5010/api/users   (e5be5b71)
2017-08-14T17:48:27.2151249-04:00 0HL73BOORSLI7 [INF] In the Db. (a75a4288)
2017-08-14T18:47:37.2763039-04:00 0HL73CPR0QR1B [INF] Request starting HTTP/1.1 GET http://localhost:5010/api/users   (e5be5b71)
2017-08-14T18:47:37.9333154-04:00 0HL73CPR0QR1B [INF] In the Db. (a75a4288)
2017-08-14T18:47:54.8783123-04:00 0HL73CPR0QR1B [INF] In the Using. (74323f10)
2017-08-14T18:49:10.4740109-04:00 0HL73CQMPO61P [INF] Request starting HTTP/1.1 GET http://localhost:5010/api/users   (e5be5b71)
2017-08-14T18:49:11.0959536-04:00 0HL73CQMPO61P [INF] In the Db. (a75a4288)
2017-08-14T18:49:20.8314192-04:00 0HL73CQMPO61P [INF] In the Using. (74323f10)
2017-08-14T18:49:32.3450872-04:00 0HL73CQMPO61P [INF] IUsers count is 0.Users.Config.D3User (500875c2)
2017-08-14T18:49:58.5938672-04:00 0HL73CQMPO61P [INF] In the Db - GetAllUsers. (031b99ab)
2017-08-14T18:49:58.6448826-04:00 0HL73CQMPO61P [INF] Creating users controller.  Users count is now 308 (9c03b60f)
2017-08-14T18:49:58.7049008-04:00 0HL73CQMPO61P [INF] Executing action method "Users.Controllers.UsersController.GetAll (users)" with arguments (null) - ModelState is Valid (ba7f4ac2)
2017-08-14T18:49:58.7079016-04:00 0HL73CQMPO61P [INF] In the Db - GetAllUsers. (031b99ab)
2017-08-14T18:49:58.7769221-04:00 0HL73CQMPO61P [INF] Executing ObjectResult, writing value "Microsoft.AspNetCore.Mvc.ControllerContext". (4e968210)
2017-08-14T18:49:59.2280418-04:00 0HL73CQMPO61P [INF] Executed action "Users.Controllers.UsersController.GetAll (users)" in 48223.6947ms (afa2e885)
2017-08-14T18:49:59.2620511-04:00 0HL73CQMPO61P [INF] Request finished in 48827.017ms 200 application/json; charset=utf-8 (15c52c40)
2017-08-14T18:50:10.2959106-04:00 0HL73CQMPO61Q [INF] Request starting HTTP/1.1 GET http://localhost:5010/api/users   (e5be5b71)
2017-08-14T18:50:10.3019118-04:00 0HL73CQMPO61Q [INF] In the Db - GetAllUsers. (031b99ab)
2017-08-14T18:50:10.3179127-04:00 0HL73CQMPO61Q [INF] Creating users controller.  Users count is now 308 (9c03b60f)
2017-08-14T18:50:10.3209131-04:00 0HL73CQMPO61Q [INF] Executing action method "Users.Controllers.UsersController.GetAll (users)" with arguments (null) - ModelState is Valid (ba7f4ac2)
2017-08-14T18:50:10.3239139-04:00 0HL73CQMPO61Q [INF] In the Db - GetAllUsers. (031b99ab)
2017-08-14T18:50:10.3389143-04:00 0HL73CQMPO61Q [INF] Executing ObjectResult, writing value "Microsoft.AspNetCore.Mvc.ControllerContext". (4e968210)
2017-08-14T18:50:10.3629169-04:00 0HL73CQMPO61Q [INF] Executed action "Users.Controllers.UsersController.GetAll (users)" in 59.6231ms (afa2e885)
2017-08-14T18:50:10.3689256-04:00 0HL73CQMPO61Q [INF] Request finished in 70.9573ms 200 application/json; charset=utf-8 (15c52c40)
2017-08-14T18:58:08.4501126-04:00 0HL73CVN470QO [INF] Request starting HTTP/1.1 GET http://localhost:5010/api/users/getDelta3UserId/ba.agent   (e5be5b71)
2017-08-14T18:58:08.9041444-04:00 0HL73CVN470QO [INF] In the Db. (a75a4288)
2017-08-14T18:58:09.1851610-04:00 0HL73CVN470QO [INF] In the Using. (74323f10)
2017-08-14T18:58:09.2361658-04:00 0HL73CVN470QO [INF] In the Db - GetAllUsers. (031b99ab)
2017-08-14T18:58:09.3301686-04:00 0HL73CVN470QO [INF] Creating users controller.  Users count is now 308 (9c03b60f)
2017-08-14T18:58:09.5211838-04:00 0HL73CVN470QO [INF] Executing action method "Users.Controllers.UsersController.GetDelta3UserId (users)" with arguments (["ba.agent"]) - ModelState is Valid (ba7f4ac2)
2017-08-14T18:58:09.8052000-04:00 0HL73CVN470QO [INF] Executing ObjectResult, writing value "Microsoft.AspNetCore.Mvc.ControllerContext". (4e968210)
2017-08-14T18:58:10.0452153-04:00 0HL73CVN470QO [INF] Executed action "Users.Controllers.UsersController.GetDelta3UserId (users)" in 1190.4606ms (afa2e885)
2017-08-14T18:58:10.0652169-04:00 0HL73CVN470QO [INF] Request finished in 1654.3799ms 200 application/json; charset=utf-8 (15c52c40)
2017-08-14T18:59:38.2201395-04:00 0HL73CVN470QP [INF] Request starting HTTP/1.1 GET http://localhost:5010/api/users/getDelta3UserId/ba.agent   (e5be5b71)
2017-08-14T18:59:38.2221415-04:00 0HL73CVN470QP [INF] In the Db - GetAllUsers. (031b99ab)
2017-08-14T18:59:38.2341404-04:00 0HL73CVN470QP [INF] Creating users controller.  Users count is now 308 (9c03b60f)
2017-08-14T18:59:38.2361406-04:00 0HL73CVN470QP [INF] Executing action method "Users.Controllers.UsersController.GetDelta3UserId (users)" with arguments (["ba.agent"]) - ModelState is Valid (ba7f4ac2)
2017-08-14T18:59:38.2371419-04:00 0HL73CVN470QP [INF] Executing ObjectResult, writing value "Microsoft.AspNetCore.Mvc.ControllerContext". (4e968210)
2017-08-14T18:59:38.2391441-04:00 0HL73CVN470QP [INF] Executed action "Users.Controllers.UsersController.GetDelta3UserId (users)" in 17.1505ms (afa2e885)
2017-08-14T18:59:38.2391441-04:00 0HL73CVN470QP [INF] Request finished in 18.703ms 200 application/json; charset=utf-8 (15c52c40)
2017-08-14T19:00:07.9728695-04:00 0HL73D0QO403B [INF] Request starting HTTP/1.1 GET http://localhost:5010/api/users/getDelta3UserId/ba.agent   (e5be5b71)
2017-08-14T19:00:08.5659366-04:00 0HL73D0QO403B [INF] In the Db. (a75a4288)
2017-08-14T19:00:19.3317328-04:00 0HL73D0QO403B [INF] In the Using. (74323f10)
2017-08-14T19:00:19.4037350-04:00 0HL73D0QO403B [INF] In the Db - GetAllUsers. (031b99ab)
2017-08-14T19:00:19.4957421-04:00 0HL73D0QO403B [INF] Creating users controller.  Users count is now 308 (9c03b60f)
2017-08-14T19:00:19.7227521-04:00 0HL73D0QO403B [INF] Executing action method "Users.Controllers.UsersController.GetDelta3UserId (users)" with arguments (["ba.agent"]) - ModelState is Valid (ba7f4ac2)
2017-08-14T19:00:38.4842566-04:00 0HL73D0QO403B [INF] Executing ObjectResult, writing value "Microsoft.AspNetCore.Mvc.ControllerContext". (4e968210)
2017-08-14T19:00:38.7692857-04:00 0HL73D0QO403B [INF] Executed action "Users.Controllers.UsersController.GetDelta3UserId (users)" in 30255.8127ms (afa2e885)
2017-08-14T19:00:38.9072953-04:00 0HL73D0QO403B [INF] Request finished in 30890.6376ms 200 application/json; charset=utf-8 (15c52c40)
2017-08-14T19:02:50.4741914-04:00 0HL73D2B5Q7V2 [INF] Request starting HTTP/1.1 GET http://localhost:5010/api/users/getDelta3UserId/ba.agent   (e5be5b71)
2017-08-14T19:02:51.0532766-04:00 0HL73D2B5Q7V2 [INF] In the Db. (a75a4288)
2017-08-14T19:02:51.1632908-04:00 0HL73D2B5Q7V2 [INF] In the Using. (74323f10)
2017-08-14T19:02:51.2323007-04:00 0HL73D2B5Q7V2 [INF] In the Db - GetAllUsers. (031b99ab)
2017-08-14T19:02:51.3213120-04:00 0HL73D2B5Q7V2 [INF] Creating users controller.  Users count is now 308 (9c03b60f)
2017-08-14T19:02:51.5533470-04:00 0HL73D2B5Q7V2 [INF] Executing action method "Users.Controllers.UsersController.GetDelta3UserId (users)" with arguments (["ba.agent"]) - ModelState is Valid (ba7f4ac2)
2017-08-14T19:03:04.5604103-04:00 0HL73D2B5Q7V2 [INF] Executing ObjectResult, writing value "Microsoft.AspNetCore.Mvc.ControllerContext". (4e968210)
2017-08-14T19:03:04.8484224-04:00 0HL73D2B5Q7V2 [INF] Executed action "Users.Controllers.UsersController.GetDelta3UserId (users)" in 13897.9435ms (afa2e885)
2017-08-14T19:03:04.8714226-04:00 0HL73D2B5Q7V2 [INF] Request finished in 14451.1685ms 200 application/json; charset=utf-8 (15c52c40)
2017-08-14T19:03:24.3465435-04:00 0HL73D2B5Q7V3 [INF] Request starting HTTP/1.1 GET http://localhost:5010/api/users/getDelta3UserId/ba.agent   (e5be5b71)
2017-08-14T19:03:24.3545436-04:00 0HL73D2B5Q7V3 [INF] In the Db - GetAllUsers. (031b99ab)
2017-08-14T19:03:24.3685441-04:00 0HL73D2B5Q7V3 [INF] Creating users controller.  Users count is now 308 (9c03b60f)
2017-08-14T19:03:24.3775456-04:00 0HL73D2B5Q7V3 [INF] Executing action method "Users.Controllers.UsersController.GetDelta3UserId (users)" with arguments (["ba.agent"]) - ModelState is Valid (ba7f4ac2)
2017-08-14T19:03:27.0698719-04:00 0HL73D2B5Q7V3 [INF] Executing ObjectResult, writing value "Microsoft.AspNetCore.Mvc.ControllerContext". (4e968210)
2017-08-14T19:03:27.0797451-04:00 0HL73D2B5Q7V3 [INF] Executed action "Users.Controllers.UsersController.GetDelta3UserId (users)" in 2726.9367ms (afa2e885)
2017-08-14T19:03:27.1127485-04:00 0HL73D2B5Q7V3 [INF] Request finished in 2738.0181ms 200 application/json; charset=utf-8 (15c52c40)
2017-08-14T19:04:01.0535153-04:00 0HL73D2B5Q7V4 [INF] Request starting HTTP/1.1 GET http://localhost:5010/api/users/getDelta3UserId/ba.agent   (e5be5b71)
2017-08-14T19:04:01.0575151-04:00 0HL73D2B5Q7V4 [INF] In the Db - GetAllUsers. (031b99ab)
2017-08-14T19:04:01.0725155-04:00 0HL73D2B5Q7V4 [INF] Creating users controller.  Users count is now 308 (9c03b60f)
2017-08-14T19:04:01.0755150-04:00 0HL73D2B5Q7V4 [INF] Executing action method "Users.Controllers.UsersController.GetDelta3UserId (users)" with arguments (["ba.agent"]) - ModelState is Valid (ba7f4ac2)
2017-08-14T19:05:07.6338750-04:00 0HL73D2B5Q7V4 [INF] Executing ObjectResult, writing value "Microsoft.AspNetCore.Mvc.ControllerContext". (4e968210)
2017-08-14T19:05:07.6388757-04:00 0HL73D2B5Q7V4 [INF] Executed action "Users.Controllers.UsersController.GetDelta3UserId (users)" in 66578.6359ms (afa2e885)
2017-08-14T19:05:07.6738774-04:00 0HL73D2B5Q7V4 [INF] Request finished in 66586.0606ms 200 application/json; charset=utf-8 (15c52c40)
2017-08-14T19:05:17.1825435-04:00 0HL73D2B5Q7V5 [INF] Request starting HTTP/1.1 GET http://localhost:5010/api/users/   (e5be5b71)
2017-08-14T19:05:17.1875450-04:00 0HL73D2B5Q7V5 [INF] In the Db - GetAllUsers. (031b99ab)
2017-08-14T19:05:17.2095453-04:00 0HL73D2B5Q7V5 [INF] Creating users controller.  Users count is now 308 (9c03b60f)
2017-08-14T19:05:17.2155448-04:00 0HL73D2B5Q7V5 [INF] Executing action method "Users.Controllers.UsersController.GetAll (users)" with arguments (null) - ModelState is Valid (ba7f4ac2)
2017-08-14T19:05:17.2185440-04:00 0HL73D2B5Q7V5 [INF] In the Db - GetAllUsers. (031b99ab)
2017-08-14T19:05:17.2345454-04:00 0HL73D2B5Q7V5 [INF] Executing ObjectResult, writing value "Microsoft.AspNetCore.Mvc.ControllerContext". (4e968210)
2017-08-14T19:05:17.3995468-04:00 0HL73D2B5Q7V5 [INF] Executed action "Users.Controllers.UsersController.GetAll (users)" in 188.2945ms (afa2e885)
2017-08-14T19:05:17.4065470-04:00 0HL73D2B5Q7V5 [INF] Request finished in 220.2041ms 200 application/json; charset=utf-8 (15c52c40)
2017-08-14T19:06:44.2460121-04:00 0HL73D4GR7NRL [INF] Request starting HTTP/1.1 GET http://localhost:5010/api/users/   (e5be5b71)
2017-08-14T19:06:44.8158375-04:00 0HL73D4GR7NRL [INF] In the Db. (a75a4288)
2017-08-14T19:06:44.9897878-04:00 0HL73D4GR7NRL [INF] In the Using. (74323f10)
2017-08-14T19:06:45.0677676-04:00 0HL73D4GR7NRL [INF] In the Db - GetAllUsers. (031b99ab)
2017-08-14T19:06:45.1647387-04:00 0HL73D4GR7NRL [INF] Creating users controller.  Users count is now 308 (9c03b60f)
2017-08-14T19:06:45.2267228-04:00 0HL73D4GR7NRL [INF] Executing action method "Users.Controllers.UsersController.GetAll (users)" with arguments (null) - ModelState is Valid (ba7f4ac2)
2017-08-14T19:06:45.2297199-04:00 0HL73D4GR7NRL [INF] In the Db - GetAllUsers. (031b99ab)
2017-08-14T19:06:45.2977012-04:00 0HL73D4GR7NRL [INF] Executing ObjectResult, writing value "Microsoft.AspNetCore.Mvc.ControllerContext". (4e968210)
2017-08-14T19:06:45.8466791-04:00 0HL73D4GR7NRL [INF] Executed action "Users.Controllers.UsersController.GetAll (users)" in 1087.0456ms (afa2e885)
2017-08-14T19:06:45.8967296-04:00 0HL73D4GR7NRL [INF] Request finished in 1676.3437ms 200 application/json; charset=utf-8 (15c52c40)
2017-08-14T19:06:50.5026646-04:00 0HL73D4GR7NRM [INF] Request starting HTTP/1.1 GET http://localhost:5010/api/users/getDelta3UserId/ba.agent   (e5be5b71)
2017-08-14T19:06:50.5066668-04:00 0HL73D4GR7NRM [INF] In the Db - GetAllUsers. (031b99ab)
2017-08-14T19:06:50.5226791-04:00 0HL73D4GR7NRM [INF] Creating users controller.  Users count is now 308 (9c03b60f)
2017-08-14T19:06:50.6827906-04:00 0HL73D4GR7NRM [INF] Executing action method "Users.Controllers.UsersController.GetDelta3UserId (users)" with arguments (["ba.agent"]) - ModelState is Valid (ba7f4ac2)
2017-08-14T19:07:08.1969344-04:00 0HL73D4GR7NRM [INF] Executing ObjectResult, writing value "Microsoft.AspNetCore.Mvc.ControllerContext". (4e968210)
2017-08-14T19:07:08.2189276-04:00 0HL73D4GR7NRM [INF] Executed action "Users.Controllers.UsersController.GetDelta3UserId (users)" in 17696.0648ms (afa2e885)
2017-08-14T19:07:08.2369223-04:00 0HL73D4GR7NRM [INF] Request finished in 17716.751ms 200 application/json; charset=utf-8 (15c52c40)
2017-08-14T19:07:57.3647794-04:00 0HL73D56KHGJI [INF] Request starting HTTP/1.1 GET http://localhost:5010/api/users/   (e5be5b71)
2017-08-14T19:07:57.9527451-04:00 0HL73D56KHGJI [INF] In the Db. (a75a4288)
2017-08-14T19:07:58.0677374-04:00 0HL73D56KHGJI [INF] In the Using. (74323f10)
2017-08-14T19:07:58.1347338-04:00 0HL73D56KHGJI [INF] In the Db - GetAllUsers. (031b99ab)
2017-08-14T19:07:58.2257271-04:00 0HL73D56KHGJI [INF] Creating users controller.  Users count is now 308 (9c03b60f)
2017-08-14T19:07:58.2997233-04:00 0HL73D56KHGJI [INF] Executing action method "Users.Controllers.UsersController.GetAll (users)" with arguments (null) - ModelState is Valid (ba7f4ac2)
2017-08-14T19:07:58.3037239-04:00 0HL73D56KHGJI [INF] In the Db - GetAllUsers. (031b99ab)
2017-08-14T19:07:58.3757189-04:00 0HL73D56KHGJI [INF] Executing ObjectResult, writing value "Microsoft.AspNetCore.Mvc.ControllerContext". (4e968210)
2017-08-14T19:07:58.8916900-04:00 0HL73D56KHGJI [INF] Executed action "Users.Controllers.UsersController.GetAll (users)" in 1004.9054ms (afa2e885)
2017-08-14T19:07:58.9146936-04:00 0HL73D56KHGJI [INF] Request finished in 1605.7737ms 200 application/json; charset=utf-8 (15c52c40)
2017-08-14T19:08:03.1945118-04:00 0HL73D56KHGJJ [INF] Request starting HTTP/1.1 GET http://localhost:5010/api/users/getDelta3UserId/ba.agent   (e5be5b71)
2017-08-14T19:08:03.1995120-04:00 0HL73D56KHGJJ [INF] In the Db - GetAllUsers. (031b99ab)
2017-08-14T19:08:03.2135117-04:00 0HL73D56KHGJJ [INF] Creating users controller.  Users count is now 308 (9c03b60f)
2017-08-14T19:08:03.3585070-04:00 0HL73D56KHGJJ [INF] Executing action method "Users.Controllers.UsersController.GetDelta3UserId (users)" with arguments (["ba.agent"]) - ModelState is Valid (ba7f4ac2)
2017-08-14T19:08:17.9203518-04:00 0HL73D56KHGJJ [INF] Executing ObjectResult, writing value "Microsoft.AspNetCore.Mvc.ControllerContext". (4e968210)
2017-08-14T19:08:17.9633583-04:00 0HL73D56KHGJJ [INF] Executed action "Users.Controllers.UsersController.GetDelta3UserId (users)" in 14725.4046ms (afa2e885)
2017-08-14T19:08:17.9823588-04:00 0HL73D56KHGJJ [INF] Request finished in 14769.7701ms 200 application/json; charset=utf-8 (15c52c40)
2017-08-14T19:09:14.5058136-04:00 0HL73D5TK6P97 [INF] Request starting HTTP/1.1 GET http://localhost:5010/api/users/getDelta3UserId/ba.agent   (e5be5b71)
2017-08-14T19:09:15.0338385-04:00 0HL73D5TK6P97 [INF] In the Db. (a75a4288)
2017-08-14T19:09:15.1468410-04:00 0HL73D5TK6P97 [INF] In the Using. (74323f10)
2017-08-14T19:09:15.2228432-04:00 0HL73D5TK6P97 [INF] In the Db - GetAllUsers. (031b99ab)
2017-08-14T19:09:15.3128478-04:00 0HL73D5TK6P97 [INF] Creating users controller.  Users count is now 308 (9c03b60f)
2017-08-14T19:09:15.5178566-04:00 0HL73D5TK6P97 [INF] Executing action method "Users.Controllers.UsersController.GetDelta3UserId (users)" with arguments (["ba.agent"]) - ModelState is Valid (ba7f4ac2)
2017-08-14T19:09:56.7583605-04:00 0HL73D6A757OM [INF] Request starting HTTP/1.1 GET http://localhost:5010/api/users/getDelta3UserId/ba.agent   (e5be5b71)
2017-08-14T19:09:57.4023422-04:00 0HL73D6A757OM [INF] In the Db. (a75a4288)
2017-08-14T19:09:57.5273395-04:00 0HL73D6A757OM [INF] In the Using. (74323f10)
2017-08-14T19:09:57.6183373-04:00 0HL73D6A757OM [INF] In the Db - GetAllUsers. (031b99ab)
2017-08-14T19:09:57.7093336-04:00 0HL73D6A757OM [INF] Creating users controller.  Users count is now 308 (9c03b60f)
2017-08-14T19:09:57.9323713-04:00 0HL73D6A757OM [INF] Executing action method "Users.Controllers.UsersController.GetDelta3UserId (users)" with arguments (["ba.agent"]) - ModelState is Valid (ba7f4ac2)
2017-08-14T19:10:10.4159485-04:00 0HL73D6A757OM [INF] Executing ObjectResult, writing value "Microsoft.AspNetCore.Mvc.ControllerContext". (4e968210)
2017-08-14T19:10:10.7099707-04:00 0HL73D6A757OM [INF] Executed action "Users.Controllers.UsersController.GetDelta3UserId (users)" in 13359.8884ms (afa2e885)
2017-08-14T19:10:10.7439742-04:00 0HL73D6A757OM [INF] Request finished in 14029.0787ms 200 application/json; charset=utf-8 (15c52c40)
2017-08-14T19:33:27.2453819-04:00 0HL73DJEIK0SN [INF] Request starting HTTP/1.1 GET http://localhost:5010/api/users/   (e5be5b71)
2017-08-14T19:33:27.8925082-04:00 0HL73DJEIK0SN [INF] In the Db. (a75a4288)
2017-08-14T19:33:28.0525356-04:00 0HL73DJEIK0SN [INF] In the Using. (74323f10)
2017-08-14T19:33:28.1295481-04:00 0HL73DJEIK0SN [INF] In the Db - GetAllUsers. (031b99ab)
2017-08-14T19:33:28.2405674-04:00 0HL73DJEIK0SN [INF] Creating users controller.  Users count is now 308 (9c03b60f)
2017-08-14T19:33:28.3245836-04:00 0HL73DJEIK0SN [INF] Executing action method "Users.Controllers.UsersController.GetAll (users)" with arguments (null) - ModelState is Valid (ba7f4ac2)
2017-08-14T19:33:28.3295960-04:00 0HL73DJEIK0SN [INF] In the Db - GetAllUsers. (031b99ab)
2017-08-14T19:33:28.4536062-04:00 0HL73DJEIK0SN [INF] Executing ObjectResult, writing value "Microsoft.AspNetCore.Mvc.ControllerContext". (4e968210)
2017-08-14T19:33:28.9316875-04:00 0HL73DJEIK0SN [INF] Executed action "Users.Controllers.UsersController.GetAll (users)" in 1118.7986ms (afa2e885)
2017-08-14T19:33:28.9586930-04:00 0HL73DJEIK0SN [INF] Request finished in 1776.9059ms 200 application/json; charset=utf-8 (15c52c40)
2017-08-14T19:35:31.0135701-04:00 0HL73DJEIK0SO [INF] Request starting HTTP/1.1 GET http://localhost:5010/api/users/getDelta3UserId/ba.agent   (e5be5b71)
2017-08-14T19:35:31.0205711-04:00 0HL73DJEIK0SO [INF] In the Db - GetAllUsers. (031b99ab)
2017-08-14T19:35:31.0325723-04:00 0HL73DJEIK0SO [INF] Creating users controller.  Users count is now 308 (9c03b60f)
2017-08-14T19:35:31.1785894-04:00 0HL73DJEIK0SO [INF] Executing action method "Users.Controllers.UsersController.GetDelta3UserId (users)" with arguments (["ba.agent"]) - ModelState is Valid (ba7f4ac2)
2017-08-14T19:37:09.0998469-04:00 0HL73DJEIK0SO [INF] Executing ObjectResult, writing value "Microsoft.AspNetCore.Mvc.ControllerContext". (4e968210)
2017-08-14T19:37:09.1088471-04:00 0HL73DJEIK0SO [INF] Executed action "Users.Controllers.UsersController.GetDelta3UserId (users)" in 98085.2437ms (afa2e885)
2017-08-14T19:37:09.1378487-04:00 0HL73DJEIK0SO [INF] Request finished in 98093.7701ms 200 application/json; charset=utf-8 (15c52c40)
2017-08-14T19:38:05.6931961-04:00 0HL73DJEIK0SP [INF] Request starting HTTP/1.1 GET http://localhost:5010/api/users/getDelta3UserId/ba.agent   (e5be5b71)
2017-08-14T19:38:05.6973984-04:00 0HL73DJEIK0SP [INF] In the Db - GetAllUsers. (031b99ab)
2017-08-14T19:38:05.7111968-04:00 0HL73DJEIK0SP [INF] Creating users controller.  Users count is now 308 (9c03b60f)
2017-08-14T19:38:05.7151970-04:00 0HL73DJEIK0SP [INF] Executing action method "Users.Controllers.UsersController.GetDelta3UserId (users)" with arguments (["ba.agent"]) - ModelState is Valid (ba7f4ac2)
2017-08-14T19:38:14.8237599-04:00 0HL73DJEIK0SP [INF] Executing ObjectResult, writing value "Microsoft.AspNetCore.Mvc.ControllerContext". (4e968210)
2017-08-14T19:38:14.8277597-04:00 0HL73DJEIK0SP [INF] Executed action "Users.Controllers.UsersController.GetDelta3UserId (users)" in 9129.764ms (afa2e885)
2017-08-14T19:38:14.8337601-04:00 0HL73DJEIK0SP [INF] Request finished in 9140.8027ms 200 application/json; charset=utf-8 (15c52c40)
2017-08-14T19:40:42.4526894-04:00 0HL73DJEIK0SQ [INF] Request starting HTTP/1.1 GET http://localhost:5010/api/users/getDelta3UserId/ba.agent   (e5be5b71)
2017-08-14T19:40:42.4566884-04:00 0HL73DJEIK0SQ [INF] In the Db - GetAllUsers. (031b99ab)
2017-08-14T19:40:42.4786912-04:00 0HL73DJEIK0SQ [INF] Creating users controller.  Users count is now 308 (9c03b60f)
2017-08-14T19:40:42.4856914-04:00 0HL73DJEIK0SQ [INF] Executing action method "Users.Controllers.UsersController.GetDelta3UserId (users)" with arguments (["ba.agent"]) - ModelState is Valid (ba7f4ac2)
2017-08-14T19:40:51.6141767-04:00 0HL73DJEIK0SQ [INF] Executing ObjectResult, writing value "Microsoft.AspNetCore.Mvc.ControllerContext". (4e968210)
2017-08-14T19:40:51.6221769-04:00 0HL73DJEIK0SQ [INF] Executed action "Users.Controllers.UsersController.GetDelta3UserId (users)" in 9163.0734ms (afa2e885)
2017-08-14T19:40:51.6261773-04:00 0HL73DJEIK0SQ [INF] Request finished in 9174.1791ms 200 application/json; charset=utf-8 (15c52c40)
2017-08-14T19:45:28.8992548-04:00 0HL73DJEIK0SR [INF] Request starting HTTP/1.1 GET http://localhost:5010/api/users/getDelta3UserId/ba.agent   (e5be5b71)
2017-08-14T19:45:28.9032550-04:00 0HL73DJEIK0SR [INF] In the Db - GetAllUsers. (031b99ab)
2017-08-14T19:45:28.9192550-04:00 0HL73DJEIK0SR [INF] Creating users controller.  Users count is now 308 (9c03b60f)
2017-08-14T19:45:28.9222555-04:00 0HL73DJEIK0SR [INF] Executing action method "Users.Controllers.UsersController.GetDelta3UserId (users)" with arguments (["ba.agent"]) - ModelState is Valid (ba7f4ac2)
2017-08-14T19:45:33.9523675-04:00 0HL73DJEIK0SR [INF] Executing ObjectResult, writing value "Microsoft.AspNetCore.Mvc.ControllerContext". (4e968210)
2017-08-14T19:45:34.0883670-04:00 0HL73DJEIK0SR [INF] Executed action "Users.Controllers.UsersController.GetDelta3UserId (users)" in 5052.1787ms (afa2e885)
2017-08-14T19:45:34.1633690-04:00 0HL73DJEIK0SR [INF] Request finished in 5198.4543ms 200 application/json; charset=utf-8 (15c52c40)
2017-08-14T19:52:47.4113421-04:00 0HL73DU8AQL1I [INF] Request starting HTTP/1.1 GET http://localhost:5010/api/users/getDelta3UserId/ba.agent   (e5be5b71)
2017-08-14T19:52:47.9283740-04:00 0HL73DU8AQL1I [INF] In the Db. (a75a4288)
2017-08-14T19:52:48.0473687-04:00 0HL73DU8AQL1I [INF] In the Using. (74323f10)
2017-08-14T19:52:48.1223710-04:00 0HL73DU8AQL1I [INF] In the Db - GetAllUsers. (031b99ab)
2017-08-14T19:52:48.2183749-04:00 0HL73DU8AQL1I [INF] Creating users controller.  Users count is now 308 (9c03b60f)
2017-08-14T19:52:48.4263881-04:00 0HL73DU8AQL1I [INF] Executing action method "Users.Controllers.UsersController.GetDelta3UserId (users)" with arguments (["ba.agent"]) - ModelState is Valid (ba7f4ac2)
2017-08-14T19:52:53.8885709-04:00 0HL73DU8AQL1I [INF] Executing ObjectResult, writing value "Microsoft.AspNetCore.Mvc.ControllerContext". (4e968210)
2017-08-14T19:52:54.2215898-04:00 0HL73DU8AQL1I [INF] Executed action "Users.Controllers.UsersController.GetDelta3UserId (users)" in 6327.5491ms (afa2e885)
2017-08-14T19:52:54.2695945-04:00 0HL73DU8AQL1I [INF] Request finished in 6901.2219ms 200 application/json; charset=utf-8 (15c52c40)
2017-08-14T20:22:54.8067828-04:00 0HL73EF2VGG7J [INF] Request starting HTTP/1.1 GET http://localhost:5010/api/users/getDelta3UserId/ba.agent   (e5be5b71)
2017-08-14T20:22:55.3578841-04:00 0HL73EF2VGG7J [INF] In the Db. (a75a4288)
2017-08-14T20:22:55.5299145-04:00 0HL73EF2VGG7J [INF] In the Using. (74323f10)
2017-08-14T20:22:55.6019287-04:00 0HL73EF2VGG7J [INF] In the Db - GetAllUsers. (031b99ab)
2017-08-14T20:22:55.7839605-04:00 0HL73EF2VGG7J [INF] Creating users controller.  Users count is now 308 (9c03b60f)
2017-08-14T20:22:55.9949989-04:00 0HL73EF2VGG7J [INF] Executing action method "Users.Controllers.UsersController.GetDelta3UserId (users)" with arguments (["ba.agent"]) - ModelState is Valid (ba7f4ac2)
2017-08-14T20:23:08.4194995-04:00 0HL73EF2VGG7J [INF] Executing ObjectResult, writing value "Microsoft.AspNetCore.Mvc.ControllerContext". (4e968210)
2017-08-14T20:23:08.7243323-04:00 0HL73EF2VGG7J [INF] Executed action "Users.Controllers.UsersController.GetDelta3UserId (users)" in 13421.3873ms (afa2e885)
2017-08-14T20:23:08.7783341-04:00 0HL73EF2VGG7J [INF] Request finished in 14037.98ms 200 application/json; charset=utf-8 (15c52c40)
2017-08-14T20:28:37.6298585-04:00 0HL73EF2VGG7K [INF] Request starting HTTP/1.1 GET http://localhost:5010/api/users/getDelta3UserId/ba.agent   (e5be5b71)
2017-08-14T20:28:37.6338572-04:00 0HL73EF2VGG7K [INF] In the Db - GetAllUsers. (031b99ab)
2017-08-14T20:28:37.6488583-04:00 0HL73EF2VGG7K [INF] Creating users controller.  Users count is now 308 (9c03b60f)
2017-08-14T20:28:37.6538591-04:00 0HL73EF2VGG7K [INF] Executing action method "Users.Controllers.UsersController.GetDelta3UserId (users)" with arguments (["ba.agent"]) - ModelState is Valid (ba7f4ac2)
2017-08-14T20:29:02.0137254-04:00 0HL73EF2VGG7K [INF] Executing ObjectResult, writing value "Microsoft.AspNetCore.Mvc.ControllerContext". (4e968210)
2017-08-14T20:29:02.0317262-04:00 0HL73EF2VGG7K [INF] Executed action "Users.Controllers.UsersController.GetDelta3UserId (users)" in 24381.7038ms (afa2e885)
2017-08-14T20:29:02.0377261-04:00 0HL73EF2VGG7K [INF] Request finished in 24405.2415ms 200 application/json; charset=utf-8 (15c52c40)
2017-08-14T21:47:18.4196128-04:00 0HL73FU81SG9I [INF] Request starting HTTP/1.1 GET http://localhost:5010/api/users/getDelta3UserId/ba.agent   (e5be5b71)
2017-08-14T21:47:18.9786615-04:00 0HL73FU81SG9I [INF] In the Db. (a75a4288)
2017-08-14T21:47:19.1746797-04:00 0HL73FU81SG9I [INF] In the Using. (74323f10)
2017-08-14T21:47:19.2436863-04:00 0HL73FU81SG9I [INF] In the Db - GetAllUsers. (031b99ab)
2017-08-14T21:47:19.3356940-04:00 0HL73FU81SG9I [INF] Creating users controller.  Users count is now 308 (9c03b60f)
2017-08-14T21:47:19.5487138-04:00 0HL73FU81SG9I [INF] Executing action method "Users.Controllers.UsersController.GetDelta3UserId (users)" with arguments (["ba.agent"]) - ModelState is Valid (ba7f4ac2)
2017-08-14T21:47:19.6187182-04:00 0HL73FU81SG9I [INF] Executing ObjectResult, writing value "Microsoft.AspNetCore.Mvc.ControllerContext". (4e968210)
2017-08-14T21:47:19.9087440-04:00 0HL73FU81SG9I [INF] Executed action "Users.Controllers.UsersController.GetDelta3UserId (users)" in 989.2348ms (afa2e885)
2017-08-14T21:47:19.9317481-04:00 0HL73FU81SG9I [INF] Request finished in 1597.7353ms 200 application/json; charset=utf-8 (15c52c40)
2017-08-14T21:50:55.7791623-04:00 0HL73FU81SG9J [INF] Request starting HTTP/1.1 GET http://localhost:5010/api/users/getDelta3UserId/ba.agent   (e5be5b71)
2017-08-14T21:50:55.8951599-04:00 0HL73FU81SG9J [INF] In the Db - GetAllUsers. (031b99ab)
2017-08-14T21:50:55.9911606-04:00 0HL73FU81SG9J [INF] Creating users controller.  Users count is now 308 (9c03b60f)
2017-08-14T21:50:55.9961598-04:00 0HL73FU81SG9J [INF] Executing action method "Users.Controllers.UsersController.GetDelta3UserId (users)" with arguments (["ba.agent"]) - ModelState is Valid (ba7f4ac2)
2017-08-14T21:50:56.0071592-04:00 0HL73FU81SG9J [INF] Executing ObjectResult, writing value "Microsoft.AspNetCore.Mvc.ControllerContext". (4e968210)
2017-08-14T21:50:56.0151609-04:00 0HL73FU81SG9J [INF] Executed action "Users.Controllers.UsersController.GetDelta3UserId (users)" in 228.4531ms (afa2e885)
2017-08-14T21:50:56.0231597-04:00 0HL73FU81SG9J [INF] Request finished in 246.3301ms 200 application/json; charset=utf-8 (15c52c40)
2017-08-14T21:55:39.9149608-04:00 0HL73FU81SG9K [INF] Request starting HTTP/1.1 GET http://localhost:5010/api/users/getDelta3UserId/ba.agent   (e5be5b71)
2017-08-14T21:55:39.9219602-04:00 0HL73FU81SG9K [INF] In the Db - GetAllUsers. (031b99ab)
2017-08-14T21:55:39.9429604-04:00 0HL73FU81SG9K [INF] Creating users controller.  Users count is now 308 (9c03b60f)
2017-08-14T21:55:39.9469612-04:00 0HL73FU81SG9K [INF] Executing action method "Users.Controllers.UsersController.GetDelta3UserId (users)" with arguments (["ba.agent"]) - ModelState is Valid (ba7f4ac2)
2017-08-14T21:55:39.9519612-04:00 0HL73FU81SG9K [INF] Executing ObjectResult, writing value "Microsoft.AspNetCore.Mvc.ControllerContext". (4e968210)
2017-08-14T21:55:39.9549611-04:00 0HL73FU81SG9K [INF] Executed action "Users.Controllers.UsersController.GetDelta3UserId (users)" in 37.2881ms (afa2e885)
2017-08-14T21:55:39.9649611-04:00 0HL73FU81SG9K [INF] Request finished in 43.941ms 200 application/json; charset=utf-8 (15c52c40)
